133216905509536925 depth\133216905509645361_proj.png
133216905509756932 depth\133216905509645361_proj.png
133216905510656887 depth\133216905510978156_proj.png
133216905510876890 depth\133216905510978156_proj.png
133216905511096895 depth\133216905510978156_proj.png
133216905511316900 depth\133216905511311355_proj.png
133216905511976912 depth\133216905511977752_proj.png
133216905512657949 depth\133216905512644149_proj.png
133216905513977974 depth\133216905513976944_proj.png
133216905514439252 depth\133216905514310143_proj.png
133216905517097933 depth\133216905516975732_proj.png
133216905518657971 depth\133216905518974924_proj.png
133216905522198151 depth\133216905522306910_proj.png
133216905522438515 depth\133216905522306910_proj.png
133216905522877139 depth\133216905522973308_proj.png
133216905523097144 depth\133216905522973308_proj.png
133216905523537152 depth\133216905523639705_proj.png
133216905523977158 depth\133216905523972904_proj.png
133216905524197165 depth\133216905524306103_proj.png
133216905524439402 depth\133216905524306103_proj.png
133216905524658081 depth\133216905524639301_proj.png
133216905524878088 depth\133216905524972500_proj.png
133216905526198111 depth\133216905526305295_proj.png
133216905526658225 depth\133216905526638493_proj.png
133216905527758247 depth\133216905527638089_proj.png
133216905528198257 depth\133216905528304486_proj.png
133216905528439596 depth\133216905528304486_proj.png
133216905528878264 depth\133216905528970883_proj.png
133216905529098271 depth\133216905528970883_proj.png
133216905529318273 depth\133216905529304083_proj.png
133216905529538276 depth\133216905529637281_proj.png
133216905529758283 depth\133216905529637281_proj.png
133216905531758271 depth\133216905531636473_proj.png
133216905531978275 depth\133216905531969671_proj.png
133216905532657313 depth\133216905532636069_proj.png
133216905532877320 depth\133216905532969267_proj.png
133216905533317325 depth\133216905533302466_proj.png
133216905533757334 depth\133216905533635665_proj.png
133216905533977339 depth\133216905533968863_proj.png
133216905534197346 depth\133216905534302062_proj.png
133216905534439678 depth\133216905534302062_proj.png
133216905534658268 depth\133216905534635260_proj.png
133216905535758290 depth\133216905535634856_proj.png
133216905537537515 depth\133216905537634048_proj.png
133216905537977524 depth\133216905537967247_proj.png
133216905539318371 depth\133216905539300042_proj.png
133216905539538375 depth\133216905539633240_proj.png
133216905539758382 depth\133216905539633240_proj.png
133216905540438926 depth\133216905540299637_proj.png
133216905541977600 depth\133216905541965631_proj.png
133216905544438878 depth\133216905544298022_proj.png
133216905545537553 depth\133216905545630816_proj.png
133216905545757560 depth\133216905545630816_proj.png
133216905545977562 depth\133216905545630816_proj.png
133216905546439986 depth\133216905546963610_proj.png
133216905547538595 depth\133216905547296809_proj.png
133216905547978603 depth\133216905547296809_proj.png
133216905548198607 depth\133216905547296809_proj.png
133216905548438988 depth\133216905547296809_proj.png
133216905548657627 depth\133216905549629199_proj.png
133216905550197659 depth\133216905550295597_proj.png
133216905550439145 depth\133216905550295597_proj.png
133216905551097741 depth\133216905550961994_proj.png
133216905551317745 depth\133216905551628391_proj.png
133216905551537749 depth\133216905551628391_proj.png
133216905551757755 depth\133216905551628391_proj.png
133216905552878733 depth\133216905552961186_proj.png
133216905553098736 depth\133216905552961186_proj.png
133216905553538748 depth\133216905553627583_proj.png
133216905553758749 depth\133216905553627583_proj.png
133216905554440090 depth\133216905554293980_proj.png
133216905555098767 depth\133216905554960378_proj.png
133216905555318772 depth\133216905555293577_proj.png
133216905555538778 depth\133216905555626775_proj.png
133216905555758779 depth\133216905555626775_proj.png
133216905555978784 depth\133216905555959973_proj.png
133216905556198790 depth\133216905556293172_proj.png
133216905557757798 depth\133216905557625967_proj.png
133216905557977802 depth\133216905557959165_proj.png
133216905558440193 depth\133216905557959165_proj.png
133216905559318851 depth\133216905559291959_proj.png
133216905559538855 depth\133216905559625159_proj.png
133216905559978867 depth\133216905559958357_proj.png
133216905560198868 depth\133216905559958357_proj.png
133216905560440180 depth\133216905560624754_proj.png
133216905560658854 depth\133216905560624754_proj.png
133216905561098860 depth\133216905560957953_proj.png
133216905561318867 depth\133216905561291152_proj.png
133216905561758872 depth\133216905561624350_proj.png
133216905561978880 depth\133216905561957548_proj.png
133216905562198881 depth\133216905562290747_proj.png
133216905562440249 depth\133216905562290747_proj.png
133216905562658910 depth\133216905562623946_proj.png
133216905563538924 depth\133216905563623542_proj.png
133216905564878835 depth\133216905564956336_proj.png
133216905565098839 depth\133216905564956336_proj.png
133216905565318844 depth\133216905565289535_proj.png
133216905566439298 depth\133216905566289131_proj.png
133216905567097985 depth\133216905566955528_proj.png
133216905567317989 depth\133216905567288727_proj.png
133216905567537993 depth\133216905567621926_proj.png
133216905567757997 depth\133216905567621926_proj.png
133216905568198009 depth\133216905568288322_proj.png
133216905569758027 depth\133216905569621117_proj.png
133216905569978028 depth\133216905569954316_proj.png
133216905571098046 depth\133216905570953911_proj.png
133216905571758061 depth\133216905571620309_proj.png
133216905571978063 depth\133216905571953507_proj.png
133216905572198067 depth\133216905572286706_proj.png
133216905573098193 depth\133216905572953103_proj.png
133216905573978213 depth\133216905573952699_proj.png
133216905574198215 depth\133216905573952699_proj.png
133216905574440479 depth\133216905574619096_proj.png
133216905574659141 depth\133216905574619096_proj.png
133216905574879145 depth\133216905574952295_proj.png
133216905575099152 depth\133216905574952295_proj.png
133216905575319153 depth\133216905575285493_proj.png
133216905576439558 depth\133216905576285089_proj.png
133216905576658262 depth\133216905576618288_proj.png
133216905576878266 depth\133216905576951486_proj.png
133216905577098267 depth\133216905576951486_proj.png
133216905577318274 depth\133216905577284685_proj.png
133216905577758279 depth\133216905577617883_proj.png
133216905578198291 depth\133216905578284281_proj.png
133216905578440473 depth\133216905578284281_proj.png
133216905578659111 depth\133216905578617479_proj.png
133216905578879114 depth\133216905578617479_proj.png
133216905579099118 depth\133216905578617479_proj.png
133216905579319123 depth\133216905578617479_proj.png
133216905581099165 depth\133216905580949870_proj.png
133216905581319167 depth\133216905581283068_proj.png
133216905581759178 depth\133216905581616267_proj.png
133216905581979178 depth\133216905581949466_proj.png
133216905582199184 depth\133216905581949466_proj.png
133216905582440521 depth\133216905582615862_proj.png
133216905582659188 depth\133216905582615862_proj.png
133216905582879195 depth\133216905582949061_proj.png
133216905583099198 depth\133216905582949061_proj.png
133216905583319201 depth\133216905583282260_proj.png
133216905583539205 depth\133216905583615459_proj.png
133216905583759210 depth\133216905583615459_proj.png
133216905583979214 depth\133216905583948657_proj.png
133216905584199220 depth\133216905584281856_proj.png
133216905584439754 depth\133216905584281856_proj.png
133216905584658413 depth\133216905584615054_proj.png
133216905585318425 depth\133216905585281452_proj.png
133216905585538432 depth\133216905585614650_proj.png
133216905585758435 depth\133216905585614650_proj.png
133216905585978438 depth\133216905585947848_proj.png
133216905586198445 depth\133216905586281047_proj.png
133216905586439642 depth\133216905586281047_proj.png
133216905587098343 depth\133216905586947444_proj.png
133216905587318343 depth\133216905587280643_proj.png
133216905587538349 depth\133216905587613842_proj.png
133216905587978356 depth\133216905587947040_proj.png
133216905588198361 depth\133216905588280239_proj.png
133216905589099304 depth\133216905588946636_proj.png
133216905589539313 depth\133216905589613033_proj.png
133216905590440699 depth\133216905590279430_proj.png
133216905591319356 depth\133216905591279026_proj.png
133216905593539393 depth\133216905593611416_proj.png
133216905594658504 depth\133216905594611012_proj.png
133216905595318514 depth\133216905595277409_proj.png
133216905595978527 depth\133216905595943806_proj.png
133216905596440767 depth\133216905596277005_proj.png
133216905597319463 depth\133216905597276601_proj.png
133216905597759475 depth\133216905597609800_proj.png
133216905598659448 depth\133216905598609395_proj.png
133216905599319461 depth\133216905599275792_proj.png
133216905601099532 depth\133216905600941785_proj.png
133216905601539543 depth\133216905601608182_proj.png
133216905601759545 depth\133216905601608182_proj.png
133216905602199553 depth\133216905602274579_proj.png
133216905602440915 depth\133216905602274579_proj.png
133216905602659561 depth\133216905602607778_proj.png
133216905602879563 depth\133216905602940977_proj.png
133216905603099567 depth\133216905602940977_proj.png
133216905603539576 depth\133216905603607373_proj.png
133216905604199591 depth\133216905604273771_proj.png
133216905605099264 depth\133216905604940168_proj.png
133216905605319265 depth\133216905605273367_proj.png
133216905605539270 depth\133216905605606565_proj.png
133216905605759274 depth\133216905605606565_proj.png
133216905608199776 depth\133216905608272154_proj.png
133216905608440114 depth\133216905608605352_proj.png
133216905608658768 depth\133216905608605352_proj.png
133216905608878772 depth\133216905608938551_proj.png
133216905609098773 depth\133216905608938551_proj.png
133216905611759748 depth\133216905612270536_proj.png
133216905612199757 depth\133216905612270536_proj.png
133216905613319889 depth\133216905613270132_proj.png
133216905613759898 depth\133216905613603331_proj.png
133216905613979904 depth\133216905613936529_proj.png
133216905614199907 depth\133216905614269728_proj.png
133216905614441147 depth\133216905614602927_proj.png
133216905614659803 depth\133216905614602927_proj.png
133216905616879945 depth\133216905616935317_proj.png
133216905617099949 depth\133216905616935317_proj.png
133216905617319952 depth\133216905617268515_proj.png
133216905617539960 depth\133216905617601714_proj.png
133216905617759961 depth\133216905617601714_proj.png
133216905617979966 depth\133216905617934912_proj.png
133216905618199973 depth\133216905618268110_proj.png
133216905618440441 depth\133216905618268110_proj.png
133216905618659080 depth\133216905618934508_proj.png
133216905619099085 depth\133216905618934508_proj.png
133216905619319092 depth\133216905619267706_proj.png
133216905619759098 depth\133216905619600905_proj.png
133216905619979105 depth\133216905619934104_proj.png
133216905620199105 depth\133216905620267302_proj.png
133216905621320013 depth\133216905621266898_proj.png
133216905621540020 depth\133216905621600096_proj.png
133216905622440524 depth\133216905622599692_proj.png
133216905622659151 depth\133216905622599692_proj.png
133216905624879090 depth\133216905624932082_proj.png
133216905625979111 depth\133216905625931678_proj.png
133216905626441460 depth\133216905626264877_proj.png
133216905626660143 depth\133216905626264877_proj.png
133216905627320156 depth\133216905628264068_proj.png
133216905627540160 depth\133216905628264068_proj.png
133216905627760167 depth\133216905628264068_proj.png
133216905627980167 depth\133216905628264068_proj.png
133216905631320129 depth\133216905631262855_proj.png
133216905633099263 depth\133216905633262046_proj.png
133216905635540316 depth\133216905635594436_proj.png
133216905635980327 depth\133216905635927635_proj.png
133216905638200117 depth\133216905638260024_proj.png
133216905639540280 depth\133216905639592819_proj.png
133216905639980287 depth\133216905639926017_proj.png
133216905640441720 depth\133216905640259216_proj.png
133216905640660411 depth\133216905640925613_proj.png
133216905640880412 depth\133216905640925613_proj.png
133216905641320421 depth\133216905641258811_proj.png
133216905641760429 depth\133216905641925209_proj.png
133216905641980433 depth\133216905641925209_proj.png
133216905642200437 depth\133216905642258408_proj.png
133216905642440782 depth\133216905642591606_proj.png
133216905642659428 depth\133216905642591606_proj.png
133216905643319438 depth\133216905643258003_proj.png
133216905643539442 depth\133216905643591202_proj.png
133216905643759446 depth\133216905643924400_proj.png
133216905643979451 depth\133216905643924400_proj.png
133216905644199455 depth\133216905643924400_proj.png
133216905644660379 depth\133216905645257194_proj.png
133216905644880384 depth\133216905645257194_proj.png
133216905647760446 depth\133216905647922783_proj.png
133216905647980452 depth\133216905647922783_proj.png
133216905648200454 depth\133216905648255981_proj.png
133216905648440971 depth\133216905648589180_proj.png
133216905648659637 depth\133216905648589180_proj.png
133216905648879642 depth\133216905648922378_proj.png
133216905649099646 depth\133216905649255577_proj.png
133216905649319650 depth\133216905649255577_proj.png
133216905649539657 depth\133216905649588776_proj.png
133216905649759661 depth\133216905649921974_proj.png
133216905649979663 depth\133216905649921974_proj.png
133216905650199670 depth\133216905650255173_proj.png
133216905650441972 depth\133216905650588371_proj.png
133216905650660615 depth\133216905650588371_proj.png
133216905651100625 depth\133216905651254768_proj.png
133216905651320628 depth\133216905651254768_proj.png
133216905651540633 depth\133216905651587967_proj.png
133216905651760637 depth\133216905651921165_proj.png
133216905651980641 depth\133216905651921165_proj.png
133216905652200648 depth\133216905652254364_proj.png
133216905652441871 depth\133216905652587562_proj.png
133216905652660530 depth\133216905652587562_proj.png
133216905652880535 depth\133216905652920761_proj.png
133216905653100539 depth\133216905653253959_proj.png
133216905653320546 depth\133216905653253959_proj.png
133216905653760551 depth\133216905653920356_proj.png
133216905654442035 depth\133216905654586754_proj.png
133216905654660680 depth\133216905654586754_proj.png
133216905655100692 depth\133216905655253151_proj.png
133216905655320693 depth\133216905655253151_proj.png
133216905655540697 depth\133216905655586349_proj.png
133216905655760705 depth\133216905655919547_proj.png
133216905655980707 depth\133216905655919547_proj.png
133216905656441038 depth\133216905656585945_proj.png
133216905656659705 depth\133216905656585945_proj.png
133216905657319717 depth\133216905657252342_proj.png
133216905657539721 depth\133216905657585540_proj.png
133216905657759726 depth\133216905657918739_proj.png
133216905657979730 depth\133216905657918739_proj.png
133216905658199734 depth\133216905658251937_proj.png
133216905659540783 depth\133216905659584732_proj.png
133216905662659809 depth\133216905662583519_proj.png
133216905664660785 depth\133216905664582710_proj.png
133216905664880789 depth\133216905664915908_proj.png
133216905665100791 depth\133216905665249107_proj.png
133216905665320795 depth\133216905665249107_proj.png
133216905665540799 depth\133216905665582305_proj.png
133216905665760803 depth\133216905665915504_proj.png
133216905665980808 depth\133216905665915504_proj.png
133216905666200811 depth\133216905666248702_proj.png
133216905666442138 depth\133216905666581901_proj.png
133216905666660808 depth\133216905666581901_proj.png
133216905667100816 depth\133216905667248298_proj.png
133216905667320821 depth\133216905667248298_proj.png
133216905667540825 depth\133216905667581496_proj.png
133216905667760832 depth\133216905667914695_proj.png
133216905667980836 depth\133216905667914695_proj.png
133216905668200837 depth\133216905668247893_proj.png
133216905668441283 depth\133216905668581092_proj.png
133216905668659937 depth\133216905668581092_proj.png
133216905669099946 depth\133216905669247489_proj.png
133216905669319952 depth\133216905669247489_proj.png
133216905669539957 depth\133216905669580687_proj.png
133216905669759959 depth\133216905669913886_proj.png
133216905669979963 depth\133216905669913886_proj.png
133216905670442257 depth\133216905670580283_proj.png
133216905670660898 depth\133216905670580283_proj.png
133216905670880905 depth\133216905670913482_proj.png
133216905671320911 depth\133216905671246681_proj.png
133216905671540918 depth\133216905671579879_proj.png
133216905671760919 depth\133216905671913077_proj.png
133216905671980924 depth\133216905671913077_proj.png
133216905672200928 depth\133216905671913077_proj.png
133216905672660916 depth\133216905672579474_proj.png
133216905672880924 depth\133216905672912673_proj.png
133216905673100928 depth\133216905673245871_proj.png
133216905673980942 depth\133216905673912268_proj.png
133216905674200949 depth\133216905674245467_proj.png
133216905674441498 depth\133216905674245467_proj.png
133216905674660154 depth\133216905674911864_proj.png
133216905674880155 depth\133216905674911864_proj.png
133216905675100159 depth\133216905674911864_proj.png
133216905675320167 depth\133216905675578261_proj.png
133216905675540167 depth\133216905675578261_proj.png
133216905675760172 depth\133216905675911459_proj.png
133216905675980179 depth\133216905675911459_proj.png
133216905676200180 depth\133216905676244658_proj.png
133216905676442338 depth\133216905676577857_proj.png
133216905676661017 depth\133216905676577857_proj.png
133216905677321029 depth\133216905677244254_proj.png
133216905677541036 depth\133216905677577452_proj.png
133216905677761040 depth\133216905677910651_proj.png
133216905677981042 depth\133216905677910651_proj.png
133216905678201049 depth\133216905678243849_proj.png
133216905678441493 depth\133216905678577048_proj.png
133216905678660133 depth\133216905678577048_proj.png
133216905678880134 depth\133216905678910246_proj.png
133216905679100137 depth\133216905679243445_proj.png
133216905679320145 depth\133216905679243445_proj.png
133216905679540147 depth\133216905679576644_proj.png
133216905679760150 depth\133216905679909842_proj.png
133216905679980157 depth\133216905679909842_proj.png
133216905680200159 depth\133216905680243040_proj.png
133216905680442516 depth\133216905680576239_proj.png
133216905680881181 depth\133216905680909437_proj.png
133216905682661115 depth\133216905682908629_proj.png
133216905682881123 depth\133216905682908629_proj.png
133216905683101124 depth\133216905683241827_proj.png
133216905684660342 depth\133216905684574621_proj.png
133216905684880350 depth\133216905684907820_proj.png
133216905685100355 depth\133216905685241018_proj.png
133216905685760365 depth\133216905685907415_proj.png
133216905686661167 depth\133216905686573812_proj.png
133216905686881169 depth\133216905686907011_proj.png
133216905687321179 depth\133216905687240209_proj.png
133216905689321340 depth\133216905689239400_proj.png
133216905689541344 depth\133216905689239400_proj.png
133216905689761349 depth\133216905690238996_proj.png
133216905689981352 depth\133216905690238996_proj.png
133216905690201357 depth\133216905690238996_proj.png
133216905690441705 depth\133216905690572194_proj.png
133216905691760373 depth\133216905691904989_proj.png
133216905693100391 depth\133216905693237782_proj.png
133216905693320395 depth\133216905693237782_proj.png
133216905693760404 depth\133216905693904179_proj.png
133216905694661429 depth\133216905694903775_proj.png
133216905695101438 depth\133216905695236973_proj.png
133216905695321442 depth\133216905695236973_proj.png
133216905695541442 depth\133216905695570172_proj.png
133216905696661484 depth\133216905696569767_proj.png
133216905696881491 depth\133216905696902966_proj.png
133216905697541502 depth\133216905697569363_proj.png
133216905697761505 depth\133216905697902561_proj.png
133216905697981510 depth\133216905697902561_proj.png
133216905698201514 depth\133216905698235760_proj.png
133216905698441860 depth\133216905698568958_proj.png
133216905699320510 depth\133216905699235356_proj.png
133216905699540511 depth\133216905699568554_proj.png
133216905699760515 depth\133216905699901753_proj.png
133216905699980523 depth\133216905699901753_proj.png
133216905700200524 depth\133216905699901753_proj.png
133216905700442884 depth\133216905700568149_proj.png
133216905700661557 depth\133216905700568149_proj.png
133216905701101566 depth\133216905701234546_proj.png
133216905701761577 depth\133216905701900943_proj.png
133216905702201586 depth\133216905702234142_proj.png
133216905702442042 depth\133216905702234142_proj.png
133216905702660689 depth\133216905702900540_proj.png
133216905703540706 depth\133216905703566936_proj.png
133216905703760710 depth\133216905703900134_proj.png
133216905703980714 depth\133216905703900134_proj.png
133216905704200717 depth\133216905703900134_proj.png
133216905704880618 depth\133216905704899730_proj.png
133216905706200640 depth\133216905705899326_proj.png
133216905707321578 depth\133216905707898517_proj.png
133216905707981589 depth\133216905707898517_proj.png
133216905708201594 depth\133216905708231715_proj.png
133216905708442043 depth\133216905708564914_proj.png
133216905709540713 depth\133216905709564509_proj.png
133216905709760717 depth\133216905709897707_proj.png
133216905710200726 depth\133216905710230906_proj.png
133216905710661645 depth\133216905710564105_proj.png
133216905710881649 depth\133216905710897303_proj.png
133216905711101653 depth\133216905711230502_proj.png
133216905711541663 depth\133216905711563700_proj.png
133216905711981668 depth\133216905712230097_proj.png
133216905712201676 depth\133216905712230097_proj.png
133216905712442103 depth\133216905712563295_proj.png
133216905712660762 depth\133216905712563295_proj.png
133216905712880766 depth\133216905712896494_proj.png
133216905713100771 depth\133216905713229692_proj.png
133216905713760786 depth\133216905713896090_proj.png
133216905714200794 depth\133216905714229288_proj.png
133216905714443049 depth\133216905714562486_proj.png
133216905714881705 depth\133216905714895685_proj.png
133216905715761725 depth\133216905715895280_proj.png
133216905716201729 depth\133216905716228479_proj.png
133216905716443086 depth\133216905716561677_proj.png
133216905717321773 depth\133216905717228074_proj.png
133216905717541777 depth\133216905717561273_proj.png
133216905717981785 depth\133216905717894471_proj.png
133216905718442241 depth\133216905718560869_proj.png
133216905718660887 depth\133216905718560869_proj.png
133216905719540903 depth\133216905719560464_proj.png
133216905719760911 depth\133216905719560464_proj.png
133216905720200916 depth\133216905720226860_proj.png
133216905720443270 depth\133216905720560059_proj.png
133216905720661933 depth\133216905720560059_proj.png
133216905721321946 depth\133216905721226456_proj.png
133216905721541948 depth\133216905721559655_proj.png
133216905721981956 depth\133216905721892854_proj.png
133216905722201960 depth\133216905722226052_proj.png
133216905723321086 depth\133216905723225647_proj.png
133216905723541091 depth\133216905723558845_proj.png
133216905723761094 depth\133216905723892044_proj.png
133216905723981099 depth\133216905723892044_proj.png
133216905724661905 depth\133216905724558441_proj.png
133216905724881913 depth\133216905724891640_proj.png
133216905725101914 depth\133216905724891640_proj.png
133216905725541924 depth\133216905725891235_proj.png
133216905725761926 depth\133216905725891235_proj.png
133216905726442466 depth\133216905726557632_proj.png
133216905726661142 depth\133216905726557632_proj.png
133216905726881150 depth\133216905726890830_proj.png
133216905727101154 depth\133216905727224029_proj.png
133216905728201175 depth\133216905727890426_proj.png
133216905728443485 depth\133216905728890021_proj.png
133216905728662036 depth\133216905728890021_proj.png
133216905728882041 depth\133216905728890021_proj.png
133216905729982062 depth\133216905729889617_proj.png
133216905732661159 depth\133216905732555204_proj.png
133216905733981185 depth\133216905733887998_proj.png
133216905735542115 depth\133216905735553991_proj.png
133216905735762116 depth\133216905735887189_proj.png
133216905736202127 depth\133216905736220387_proj.png
133216905737762153 depth\133216905737219983_proj.png
133216905739542288 depth\133216905738552777_proj.png
133216905739762289 depth\133216905738552777_proj.png
133216905741981385 depth\133216905741884761_proj.png
133216905742201389 depth\133216905742217960_proj.png
133216905742442687 depth\133216905742551158_proj.png
133216905743981360 depth\133216905743883952_proj.png
133216905744201364 depth\133216905744217151_proj.png
133216905746201508 depth\133216905746216342_proj.png
133216905746443775 depth\133216905746549540_proj.png
133216905746662432 depth\133216905746549540_proj.png
133216905747542451 depth\133216905747549135_proj.png
133216905747982456 depth\133216905747882334_proj.png
133216905748202463 depth\133216905748215532_proj.png
133216905748443765 depth\133216905748548731_proj.png
133216905748662413 depth\133216905748548731_proj.png
133216905748882417 depth\133216905748881929_proj.png
133216905749762433 depth\133216905749881524_proj.png
133216905750202445 depth\133216905750214723_proj.png
133216905750443889 depth\133216905750547922_proj.png
133216905750662513 depth\133216905750547922_proj.png
133216905750882517 depth\133216905750881120_proj.png
133216905751102521 depth\133216905750881120_proj.png
133216905751322525 depth\133216905751547517_proj.png
133216905752443920 depth\133216905752547112_proj.png
133216905752662451 depth\133216905752547112_proj.png
133216905752882455 depth\133216905752880310_proj.png
133216905753762469 depth\133216905753879906_proj.png
133216905754202477 depth\133216905754213105_proj.png
133216905754443864 depth\133216905754546303_proj.png
133216905754662489 depth\133216905754546303_proj.png
133216905754882497 depth\133216905754879501_proj.png
133216905755102498 depth\133216905755212699_proj.png
133216905755322505 depth\133216905755212699_proj.png
133216905757761772 depth\133216905758544684_proj.png
133216905757981776 depth\133216905758544684_proj.png
133216905758201781 depth\133216905758544684_proj.png
133216905758443082 depth\133216905758544684_proj.png
133216905759541747 depth\133216905759544279_proj.png
133216905759761748 depth\133216905759877478_proj.png
133216905759981752 depth\133216905759877478_proj.png
133216905760201760 depth\133216905759877478_proj.png
133216905760444000 depth\133216905760543875_proj.png
133216905760662672 depth\133216905760543875_proj.png
133216905761102678 depth\133216905761210271_proj.png
133216905761542689 depth\133216905761210271_proj.png
133216905761762690 depth\133216905761876669_proj.png
133216905761982697 depth\133216905761876669_proj.png
133216905762202698 depth\133216905762209867_proj.png
133216905762443072 depth\133216905762543066_proj.png
133216905762661714 depth\133216905762543066_proj.png
133216905763981739 depth\133216905763875859_proj.png
133216905765321871 depth\133216905765208653_proj.png
133216905766881894 depth\133216905766874645_proj.png
133216905768201922 depth\133216905768540637_proj.png
133216905769982758 depth\133216905769873431_proj.png
133216905771102789 depth\133216905771206224_proj.png
133216905772662808 depth\133216905772539018_proj.png
133216905773322823 depth\133216905773205415_proj.png
133216905773542824 depth\133216905773538614_proj.png
133216905773762828 depth\133216905773871812_proj.png
133216905773982835 depth\133216905773871812_proj.png
133216905775762872 depth\133216905775871003_proj.png
133216905775982875 depth\133216905775871003_proj.png
133216905776663003 depth\133216905777203796_proj.png
133216905776883007 depth\133216905777203796_proj.png
133216905777103014 depth\133216905777203796_proj.png
133216905777323015 depth\133216905777203796_proj.png
133216905777543020 depth\133216905777536995_proj.png
133216905777763027 depth\133216905777870193_proj.png
133216905778203032 depth\133216905777870193_proj.png
133216905778444307 depth\133216905778536590_proj.png
133216905778882933 depth\133216905779202987_proj.png
133216905779762953 depth\133216905779869384_proj.png
133216905779982958 depth\133216905779869384_proj.png
133216905780202958 depth\133216905780202582_proj.png
133216905780444400 depth\133216905780535781_proj.png
133216905780883080 depth\133216905780868979_proj.png
133216905781763100 depth\133216905781535377_proj.png
133216905782443427 depth\133216905782534971_proj.png
133216905782662089 depth\133216905782534971_proj.png
133216905782882090 depth\133216905782868170_proj.png
133216905783322100 depth\133216905782868170_proj.png
133216905783542103 depth\133216905784200964_proj.png
133216905783762108 depth\133216905784200964_proj.png
133216905783982112 depth\133216905784200964_proj.png
133216905784883141 depth\133216905784867360_proj.png
133216905785103145 depth\133216905785200559_proj.png
133216905785323152 depth\133216905785200559_proj.png
133216905785543154 depth\133216905785533757_proj.png
133216905785763158 depth\133216905785866956_proj.png
133216905785983165 depth\133216905785866956_proj.png
133216905786203165 depth\133216905786200154_proj.png
133216905786443456 depth\133216905786533353_proj.png
133216905787102158 depth\133216905787199750_proj.png
133216905787542167 depth\133216905787532948_proj.png
133216905787982176 depth\133216905787866146_proj.png
133216905788202179 depth\133216905788199345_proj.png
133216905788662203 depth\133216905788532543_proj.png
133216905789542222 depth\133216905790198535_proj.png
133216905790202233 depth\133216905790198535_proj.png
133216905791102355 depth\133216905791198130_proj.png
133216905792883277 depth\133216905792864122_proj.png
133216905793763293 depth\133216905793863718_proj.png
133216905793983297 depth\133216905793863718_proj.png
133216905794203302 depth\133216905794196916_proj.png
133216905795103242 depth\133216905795196512_proj.png
133216905795323243 depth\133216905795196512_proj.png
133216905795543251 depth\133216905795529710_proj.png
133216905795983256 depth\133216905795862908_proj.png
133216905796203263 depth\133216905796196107_proj.png
133216905796663383 depth\133216905796529305_proj.png
133216905796883388 depth\133216905796862504_proj.png
133216905797103392 depth\133216905797195702_proj.png
133216905799322418 depth\133216905799194893_proj.png
133216905799542426 depth\133216905799528092_proj.png
133216905800882439 depth\133216905800860885_proj.png
133216905801322449 depth\133216905800860885_proj.png
133216905801542454 depth\133216905801860481_proj.png
133216905801762455 depth\133216905801860481_proj.png
133216905801982462 depth\133216905801860481_proj.png
133216905802202462 depth\133216905802193679_proj.png
133216905802443939 depth\133216905802526877_proj.png
133216905804202605 depth\133216905804192869_proj.png
133216905805103439 depth\133216905805192464_proj.png
133216905806203460 depth\133216905806192059_proj.png
133216905807103454 depth\133216905807191655_proj.png
133216905807763467 depth\133216905807858052_proj.png
133216905810882623 depth\133216905809857242_proj.png
133216905811102630 depth\133216905812189631_proj.png
133216905811322635 depth\133216905812189631_proj.png
133216905813103581 depth\133216905813855623_proj.png
133216905813323588 depth\133216905813855623_proj.png
133216905813543590 depth\133216905813855623_proj.png
133216905815323732 depth\133216905814188821_proj.png
133216905815543737 depth\133216905814188821_proj.png
133216905815763743 depth\133216905814188821_proj.png
133216905815983745 depth\133216905814188821_proj.png
133216905816203749 depth\133216905814188821_proj.png
133216905816444995 depth\133216905814188821_proj.png
133216905816663657 depth\133216905814188821_proj.png
133216905817103666 depth\133216905814188821_proj.png
