%YAML 1.1
%TAG !u! tag:unity3d.com,2011:
--- !u!114 &11400000
MonoBehaviour:
  m_ObjectHideFlags: 0
  m_CorrespondingSourceObject: {fileID: 0}
  m_PrefabInstance: {fileID: 0}
  m_PrefabAsset: {fileID: 0}
  m_GameObject: {fileID: 0}
  m_Enabled: 1
  m_EditorHideFlags: 0
  m_Script: {fileID: 11500000, guid: 9f3758f8f58fdef43803eb9be1df0608, type: 3}
  m_Name: PhotonServerSettings
  m_EditorClassIdentifier: 
  AppSettings:
    AppIdRealtime: 07e3bda7-6987-48bc-95ac-aa1d198c91dc
    AppIdFusion: 
    AppIdChat: 
    AppIdVoice: 
    AppVersion: 1
    UseNameServer: 1
    FixedRegion: kr
    Server: 
    Port: 0
    ProxyServer: 
    Protocol: 0
    EnableProtocolFallback: 1
    AuthMode: 0
    EnableLobbyStatistics: 0
    NetworkLogging: 1
  DevRegion: kr
  PunLogging: 0
  EnableSupportLogger: 0
  RunInBackground: 1
  StartInOfflineMode: 0
  RpcList:
  - ClickRpc
  - DestroyRpc
  - DestroySpaceship
  - Fire
  - RespawnSpaceship
  - RPC_GazeOnObjChange
  - RPC_GenButtonClick
  - RPC_GlassesGyroButtonClick
  - RPC_IsObjBeingManipChange
  - RPC_ObjClickForWebview
  - RPC_PhoneGyroButtonClick
  - RPC_PhoneSwipeButtonClick
  - RPC_PointerDown
  - RPC_PointerUp
  - RPC_SyncGyroDelta
  - RPC_SyncSwipeDelta
  - RPC_SyncGyroAttitude
  - RPC_ViewModeChange
  DisableAutoOpenWizard: 1
  ShowSettings: 1
  DevRegionSetOnce: 1
